{
    "rules":[{
        "sensor1":{
            "name":"Button",
            "expected_value":"true"
        },
        "actuator":{
            "name":"Socket",
            "value":true
        },
        "time":{
            "start_time":"",
            "end_time":"",
            "rel_time":""
        },
        "link":"XOR/OR/AND",
	"msg":""},
    {
        "sensor1":{
            "name":"SenorName",
            "expected_value":90
        },
        "sensor2":{
            "name":"SensorName",
            "expected_value":"true"
        },
        "actuator":{
            "name":"ActuatorName",
            "value":"value"
        },
        "time":{
            "start_time":"absStarttime",
            "end_time":"absEndTine",
            "rel_time":"max time between events"
        },
        "link":"XOR/OR/AND",
	"msg":"This is a message"},
    {
        "sensor1":{
            "name":"SenorName",
            "expected_value":"true"
        },
        "sensor2":{
            "name":"SensorName",
            "expected_value":"true"
        },
        "actuator":{
            "name":"ActuatorName",
            "value":"value"
        },
        "time":{
            "start_time":"absStarttime",
            "end_time":"absEndTine",
            "rel_time":"max time between events"
        },
        "link":"XOR/OR/AND",
	"msg":"This is a message"},
   {
	"sensor1":{
            "name":"SenorName",
            "expected_value":90
        },
        "sensor2":{
            "name":"SensorName",
            "expected_value":"true"
        },
        "actuator":{
            "name":"ActuatorName",
            "value":"value"
        },
        "time":{
            "start_time":"absStarttime",
            "end_time":"absEndTine",
            "rel_time":"max time between events"
        },
        "link":"XOR/OR/AND",
	"msg":"No second Sensor"}
    ]
}